            ┌─── false
├──Rainy is true 
            │               ┌─── true
            │       ┌───Temperature is bigger than 25.97690501644891
            │       │       │       ┌─── false
            │       │       └───Cloud Cover equals cloudy
            │       │               └─── true
            └───Temperature is bigger than 10.395200697030251
                    └─── false
